…
#Mean and Median of Steps


```r
#mean number of steps
mean.s <- activity %>%
  group_by(as.factor(date)) %>%
  summarise(mean.step = mean(steps, na.rm = T))
print(mean.s)
```

```
## # A tibble: 61 x 2
##    `as.factor(date)` mean.step
##               <fctr>     <dbl>
## 1         2012-10-01       NaN
## 2         2012-10-02   0.43750
## 3         2012-10-03  39.41667
## 4         2012-10-04  42.06944
## 5         2012-10-05  46.15972
## 6         2012-10-06  53.54167
## 7         2012-10-07  38.24653
## 8         2012-10-08       NaN
## 9         2012-10-09  44.48264
## 10        2012-10-10  34.37500
## # ... with 51 more rows
```

```r
#median number of steps
median.s <- activity %>%
  group_by(as.factor(date)) %>%
  summarise(median.step = median(steps, na.rm = T))
print(median.s)
```

```
## # A tibble: 61 x 2
##    `as.factor(date)` median.step
##               <fctr>       <dbl>
## 1         2012-10-01          NA
## 2         2012-10-02           0
## 3         2012-10-03           0
## 4         2012-10-04           0
## 5         2012-10-05           0
## 6         2012-10-06           0
## 7         2012-10-07           0
## 8         2012-10-08          NA
## 9         2012-10-09           0
## 10        2012-10-10           0
## # ... with 51 more rows
```
…
The histogram looks more unimodal now with most of the total steps being around 10000.

#Mean and Median Steps of New Dataset


```r
#mean number of steps
mean.s.n <- n.activity %>%
  group_by(as.factor(date)) %>%
  summarise(mean.step = mean(steps, na.rm = T))
print(mean.s.n)
```

```
## # A tibble: 61 x 2
##    `as.factor(date)` mean.step
##               <fctr>     <dbl>
## 1         2012-10-01  37.38260
## 2         2012-10-02   0.43750
## 3         2012-10-03  39.41667
## 4         2012-10-04  42.06944
## 5         2012-10-05  46.15972
## 6         2012-10-06  53.54167
## 7         2012-10-07  38.24653
## 8         2012-10-08  37.38260
## 9         2012-10-09  44.48264
## 10        2012-10-10  34.37500
## # ... with 51 more rows
```

```r
#median number of steps
median.s.n <- n.activity %>%
  group_by(as.factor(date)) %>%
  summarise(median.step = median(steps, na.rm = T))
print(median.s.n)
```

```
## # A tibble: 61 x 2
##    `as.factor(date)` median.step
##               <fctr>       <dbl>
## 1         2012-10-01    34.11321
## 2         2012-10-02     0.00000
## 3         2012-10-03     0.00000
## 4         2012-10-04     0.00000
## 5         2012-10-05     0.00000
## 6         2012-10-06     0.00000
## 7         2012-10-07     0.00000
## 8         2012-10-08    34.11321
## 9         2012-10-09     0.00000
## 10        2012-10-10     0.00000
## # ... with 51 more rows
```
…
